{
    "results": [
                {
                "vote_count": 1317,
                "id": 383498,
                "video": false,
                "vote_average": 7.9,
                "title": "Deadpool 2",
                "popularity": 503.237445,
                "poster_path": "/to0spRl1CMDvyUbOnbb4fTk3VAd.jpg",
                "original_language": "en",
                "original_title": "Deadpool 2",
                "genre_ids": [
                              28,
                              35,
                              878
                              ],
                "backdrop_path": "/3P52oz9HPQWxcwHOwxtyrVV1LKi.jpg",
                "adult": false,
                "overview": "Wisecracking mercenary Deadpool battles the evil and powerful Cable and other bad guys to save a boy's life.",
                "release_date": "2018-05-15"
                },
                {
                "vote_count": 4137,
                "id": 299536,
                "video": false,
                "vote_average": 8.5,
                "title": "Avengers: Infinity War",
                "popularity": 368.052419,
                "poster_path": "/7WsyChQLEftFiDOVTGkv3hFpyyt.jpg",
                "original_language": "en",
                "original_title": "Avengers: Infinity War",
                "genre_ids": [
                              12,
                              878,
                              14,
                              28
                              ],
                "backdrop_path": "/bOGkgRGdhrBYJSLpXaxhXVstddV.jpg",
                "adult": false,
                "overview": "As the Avengers and their allies have continued to protect the world from threats too large for any one hero to handle, a new danger has emerged from the cosmic shadows: Thanos. A despot of intergalactic infamy, his goal is to collect all six Infinity Stones, artifacts of unimaginable power, and use them to inflict his twisted will on all of reality. Everything the Avengers have fought for has led up to this moment - the fate of Earth and existence itself has never been more uncertain.",
                "release_date": "2018-04-25"
                },
                {
                "vote_count": 407,
                "id": 348350,
                "video": false,
                "vote_average": 6.9,
                "title": "Solo: A Star Wars Story",
                "popularity": 189.374831,
                "poster_path": "/4oD6VEccFkorEBTEDXtpLAaz0Rl.jpg",
                "original_language": "en",
                "original_title": "Solo: A Star Wars Story",
                "genre_ids": [
                              28,
                              12,
                              878
                              ],
                "backdrop_path": "/7LZ0K4FsALrt7OeNIGOVLNuKQRU.jpg",
                "adult": false,
                "overview": "Through a series of daring escapades deep within a dark and dangerous criminal underworld, Han Solo meets his mighty future copilot Chewbacca and encounters the notorious gambler Lando Calrissian.",
                "release_date": "2018-05-23"
                },
                {
                "vote_count": 613,
                "id": 427641,
                "video": false,
                "vote_average": 5.9,
                "title": "Rampage",
                "popularity": 80.455627,
                "poster_path": "/30oXQKwibh0uANGMs0Sytw3uN22.jpg",
                "original_language": "en",
                "original_title": "Rampage",
                "genre_ids": [
                              28,
                              12,
                              878
                              ],
                "backdrop_path": "/wrqUiMXttHE4UBFMhLHlN601MZh.jpg",
                "adult": false,
                "overview": "Primatologist Davis Okoye shares an unshakable bond with George, the extraordinarily intelligent, silverback gorilla who has been in his care since birth.  But a rogue genetic experiment gone awry mutates this gentle ape into a raging creature of enormous size.  To make matters worse, it’s soon discovered there are other similarly altered animals.  As these newly created alpha predators tear across North America, destroying everything in their path, Okoye teams with a discredited genetic engineer to secure an antidote, fighting his way through an ever-changing battlefield, not only to halt a global catastrophe but to save the fearsome creature that was once his friend.",
                "release_date": "2018-04-12"
                },
                {
                "vote_count": 718,
                "id": 445571,
                "video": false,
                "vote_average": 7,
                "title": "Game Night",
                "popularity": 80.390613,
                "poster_path": "/85R8LMyn9f2Lev2YPBF8Nughrkv.jpg",
                "original_language": "en",
                "original_title": "Game Night",
                "genre_ids": [
                              9648,
                              35,
                              80,
                              53
                              ],
                "backdrop_path": "/nFQYnpri9kqJ91sG1IfyhukhdrD.jpg",
                "adult": false,
                "overview": "Max and Annie's weekly game night gets kicked up a notch when Max's brother Brooks arranges a murder mystery party -- complete with fake thugs and federal agents. So when Brooks gets kidnapped, it's all supposed to be part of the game. As the competitors set out to solve the case, they start to learn that neither the game nor Brooks are what they seem to be. The friends soon find themselves in over their heads as each twist leads to another unexpected turn over the course of one chaotic night.",
                "release_date": "2018-02-22"
                },
                {
                "vote_count": 296,
                "id": 395990,
                "video": false,
                "vote_average": 5.4,
                "title": "Death Wish",
                "popularity": 64.932196,
                "poster_path": "/rxPghSvLbWCUjLplxkkcPMahbsz.jpg",
                "original_language": "en",
                "original_title": "Death Wish",
                "genre_ids": [
                              28,
                              80,
                              18,
                              53
                              ],
                "backdrop_path": "/uQqQvmptJLPTcWDrZXn22p7j7s3.jpg",
                "adult": false,
                "overview": "A mild-mannered father is transformed into a killing machine after his family is torn apart by a violent act.",
                "release_date": "2018-03-02"
                },
                {
                "vote_count": 1170,
                "id": 447332,
                "video": false,
                "vote_average": 7.3,
                "title": "A Quiet Place",
                "popularity": 57.47646,
                "poster_path": "/nAU74GmpUk7t5iklEp3bufwDq4n.jpg",
                "original_language": "en",
                "original_title": "A Quiet Place",
                "genre_ids": [
                              18,
                              27,
                              53,
                              878
                              ],
                "backdrop_path": "/roYyPiQDQKmIKUEhO912693tSja.jpg",
                "adult": false,
                "overview": "A family is forced to live in silence while hiding from creatures that hunt by sound.",
                "release_date": "2018-04-05"
                },
                {
                "vote_count": 1908,
                "id": 300668,
                "video": false,
                "vote_average": 6.3,
                "title": "Annihilation",
                "popularity": 56.78507,
                "poster_path": "/e3P2Ed0sbmQ6RsoS4dcT3aeEPR.jpg",
                "original_language": "en",
                "original_title": "Annihilation",
                "genre_ids": [
                              9648,
                              878,
                              18,
                              12,
                              14,
                              27,
                              53
                              ],
                "backdrop_path": "/5zfVNTrkhMu673zma6qhFzG01ig.jpg",
                "adult": false,
                "overview": "A biologist signs up for a dangerous, secret expedition into a mysterious zone where the laws of nature don't apply.",
                "release_date": "2018-02-22"
                },
                {
                "vote_count": 2035,
                "id": 333339,
                "video": false,
                "vote_average": 7.8,
                "title": "Ready Player One",
                "popularity": 54.918413,
                "poster_path": "/pU1ULUq8D3iRxl1fdX2lZIzdHuI.jpg",
                "original_language": "en",
                "original_title": "Ready Player One",
                "genre_ids": [
                              12,
                              878,
                              28
                              ],
                "backdrop_path": "/q7fXcrDPJcf6t3rzutaNwTzuKP1.jpg",
                "adult": false,
                "overview": "When the creator of a popular video game system dies, a virtual contest is created to compete for his fortune.",
                "release_date": "2018-03-28"
                },
                {
                "vote_count": 1,
                "id": 490214,
                "video": false,
                "vote_average": 1,
                "title": "Iceman 2",
                "popularity": 45.138052,
                "poster_path": "/enZENHd2gwVAw4sJKJxtJl1vJ09.jpg",
                "original_language": "cn",
                "original_title": "时空行者2",
                "genre_ids": [
                              28,
                              35,
                              36
                              ],
                "backdrop_path": "/6SOLRw0mLepY83uonpbhWIe8mWx.jpg",
                "adult": false,
                "overview": "The imperial guard and his three traitorous childhood friends ordered to hunt him down get accidentally buried and kept frozen in time. 400 years later pass and they are defrosted continuing the battle they left behind",
                "release_date": "2018-05-18"
                },
                {
                "vote_count": 14,
                "id": 411135,
                "video": false,
                "vote_average": 5.8,
                "title": "Future World",
                "popularity": 44.468236,
                "poster_path": "/kMA0IalnEEa0PaHRUzzjpTu5xXQ.jpg",
                "original_language": "en",
                "original_title": "Future World",
                "genre_ids": [
                              878
                              ],
                "backdrop_path": "/g29nhwmOiYElKW27hzohK6nSwpC.jpg",
                "adult": false,
                "overview": "A young boy searches a future world wasteland for a rumored cure for his dying mother.",
                "release_date": "2018-05-25"
                },
                {
                "vote_count": 709,
                "id": 268896,
                "video": false,
                "vote_average": 5.9,
                "title": "Pacific Rim: Uprising",
                "popularity": 42.697347,
                "poster_path": "/v5HlmJK9bdeHxN2QhaFP1ivjX3U.jpg",
                "original_language": "en",
                "original_title": "Pacific Rim: Uprising",
                "genre_ids": [
                              28,
                              14,
                              878,
                              12
                              ],
                "backdrop_path": "/mo5EJsExrQCroqPDwUwp6jeq0xS.jpg",
                "adult": false,
                "overview": "It has been ten years since The Battle of the Breach and the oceans are still, but restless. Vindicated by the victory at the Breach, the Jaeger program has evolved into the most powerful global defense force in human history. The PPDC now calls upon the best and brightest to rise up and become the next generation of heroes when the Kaiju threat returns.",
                "release_date": "2018-03-21"
                },
                {
                "vote_count": 159,
                "id": 460019,
                "video": false,
                "vote_average": 5.8,
                "title": "Truth or Dare",
                "popularity": 37.420748,
                "poster_path": "/zbvziwnZa91AJD78Si0hUb5JP5X.jpg",
                "original_language": "en",
                "original_title": "Truth or Dare",
                "genre_ids": [
                              53,
                              27
                              ],
                "backdrop_path": "/eQ5xu2pQ5Kergubto5PbbUzey28.jpg",
                "adult": false,
                "overview": "A harmless game of “Truth or Dare” among friends turns deadly when someone—or something—begins to punish those who tell a lie—or refuse the dare.",
                "release_date": "2018-04-12"
                },
                {
                "vote_count": 64,
                "id": 340022,
                "video": false,
                "vote_average": 6.4,
                "title": "Gringo",
                "popularity": 34.031594,
                "poster_path": "/dxeVPklFwng2IowqRPNI4od6aXv.jpg",
                "original_language": "en",
                "original_title": "Gringo",
                "genre_ids": [
                              35,
                              18,
                              28,
                              80
                              ],
                "backdrop_path": "/1u2f04uoVGTjmThK71yDDqeQwK0.jpg",
                "adult": false,
                "overview": "An American businessman with a stake in a pharmaceutical company that's about to go public finds his life is thrown into turmoil by an incident in Mexico.",
                "release_date": "2018-03-09"
                },
                {
                "vote_count": 610,
                "id": 446791,
                "video": false,
                "vote_average": 6.3,
                "title": "All the Money in the World",
                "popularity": 33.634191,
                "poster_path": "/zig7XjXQ7aJhyy2KIGDGPPom4uJ.jpg",
                "original_language": "en",
                "original_title": "All the Money in the World",
                "genre_ids": [
                              53,
                              18,
                              80,
                              9648
                              ],
                "backdrop_path": "/j3gpAEqIXyFj54eA1d7WI93LFuf.jpg",
                "adult": false,
                "overview": "The story of the kidnapping of 16-year-old John Paul Getty III and the desperate attempt by his devoted mother to convince his billionaire grandfather Jean Paul Getty to pay the ransom.",
                "release_date": "2017-12-13"
                },
                {
                "vote_count": 10,
                "id": 454615,
                "video": false,
                "vote_average": 5.3,
                "title": "Black Water",
                "popularity": 32.065726,
                "poster_path": "/tIcZAB5AmRN8fIDXfDZ2aUok9qa.jpg",
                "original_language": "en",
                "original_title": "Black Water",
                "genre_ids": [
                              28,
                              18
                              ],
                "backdrop_path": "/byFf3OQceVbtHplvql7W1JmNJhU.jpg",
                "adult": false,
                "overview": "A deep cover operative awakens to find himself imprisoned in a CIA black site on a submarine.",
                "release_date": "2018-05-18"
                },
                {
                "vote_count": 138,
                "id": 425972,
                "video": false,
                "vote_average": 6.4,
                "title": "Cargo",
                "popularity": 31.395067,
                "poster_path": "/cdPSUck4tBRvRu6DFk6XciDrssn.jpg",
                "original_language": "en",
                "original_title": "Cargo",
                "genre_ids": [
                              18,
                              53
                              ],
                "backdrop_path": "/tiIpajUBpLMNWMEzpjRBxo0jCbD.jpg",
                "adult": false,
                "overview": "After being infected in the wake of a violent pandemic and  with only 48 hours  to live, a father struggles to find a new home for his baby daughter.",
                "release_date": "2018-05-18"
                },
                {
                "vote_count": 298,
                "id": 453201,
                "video": false,
                "vote_average": 5.1,
                "title": "The 15:17 to Paris",
                "popularity": 28.767892,
                "poster_path": "/qxJQ0VBCuJkJhJmuWzxI408ngwd.jpg",
                "original_language": "en",
                "original_title": "The 15:17 to Paris",
                "genre_ids": [
                              18,
                              36,
                              53
                              ],
                "backdrop_path": "/wybwzeZ7mQDftmmrxOhcht35Qij.jpg",
                "adult": false,
                "overview": "In August 2015, an ISIS terrorist boarded train #9364 from Brussels to Paris. Armed with an AK-47 and enough ammo to kill more than 500 people, the terrorist might have succeeded except for three American friends who refused to give in to fear. One was a college student, one was a martial arts enthusiast and airman first class in the U.S. Air Force, and the other was a member of the Oregon National Guard, and all three pals proved fearless as they charged and ultimately overpowered the gunman after he emerged from a bathroom armed and ready to kill.",
                "release_date": "2018-02-02"
                },
                {
                "vote_count": 12,
                "id": 417643,
                "video": false,
                "vote_average": 7.3,
                "title": "In Darkness",
                "popularity": 28.263904,
                "poster_path": "/vQXWGuPvVrSF3u27KAgBRXelLQz.jpg",
                "original_language": "en",
                "original_title": "In Darkness",
                "genre_ids": [
                              53
                              ],
                "backdrop_path": "/qQBFIMJMu13zYh7JPSgVyIWJRAJ.jpg",
                "adult": false,
                "overview": "A blind musician hears a murder committed in the apartment upstairs from hers that sends her down a dark path into London's gritty criminal underworld.",
                "release_date": "2018-05-25"
                },
                {
                "vote_count": 96,
                "id": 387592,
                "video": false,
                "vote_average": 5.9,
                "title": "Early Man",
                "popularity": 28.230936,
                "poster_path": "/hXukFwTKOe7izDsf3ZOdeYikRxF.jpg",
                "original_language": "en",
                "original_title": "Early Man",
                "genre_ids": [
                              10751,
                              35,
                              16
                              ],
                "backdrop_path": "/jyvWcB4PH1BSPo82t4h8sU4wr2a.jpg",
                "adult": false,
                "overview": "Set at the dawn of time when dinosaurs and woolly mammoths roamed the earth, Early Man tells the story of how one plucky caveman unites his tribe against a mighty enemy and saves the day.",
                "release_date": "2018-01-26"
                }
                ],
    "page": 1,
    "total_results": 1063,
    "dates": {
        "maximum": "2018-05-27",
        "minimum": "2018-04-08"
    },
    "total_pages": 54
}

